<?xml version="1.0" encoding="utf-8"?>
<!-- Generator: Adobe Illustrator 21.0.2, SVG Export Plug-In . SVG Version: 6.00 Build 0)  -->
<svg version="1.1" id="Ebene_1" xmlns="http://www.w3.org/2000/svg" xmlns:xlink="http://www.w3.org/1999/xlink" x="0px" y="0px"
	 viewBox="0 0 301.5 51" enable-background="new 0 0 301.5 51" xml:space="preserve">
<polygon points="18.2,32.6 24.6,32.6 24.6,31 22.2,31 22.2,26.1 30.9,26.1 30.9,31 28.5,31 28.5,32.6 34.9,32.6 34.9,31 32.7,31 
	32.7,19.6 34.9,19.6 34.9,18.1 28.5,18.1 28.5,19.6 30.9,19.6 30.9,24.5 22.2,24.5 22.2,19.6 24.6,19.6 24.6,18.1 18.2,18.1 
	18.2,19.6 20.4,19.6 20.4,31 18.2,31 "/>
<polygon points="4.9,4.1 4.9,46.6 31.9,46.6 31.9,45 6.5,45 6.5,36.2 9.8,36.2 9.8,42.1 11.4,42.1 11.4,39.2 11.4,38.8 11.4,23.5 
	14.6,23.5 14.6,37.3 38.7,37.3 38.7,26.7 41.5,26.7 41.9,26.7 43.4,26.7 43.4,8.4 9.8,8.4 9.8,18.9 11.4,18.9 11.4,10 41.9,10 
	41.9,25.1 38.7,25.1 38.7,13.2 23.6,13.2 23.6,14.8 37.1,14.8 37.1,35.7 16.2,35.7 16.2,14.8 20.7,14.8 20.7,13.2 14.6,13.2 
	14.6,21.9 9.8,21.9 9.8,34.6 6.5,34.6 6.5,5.7 46.9,5.7 46.9,45 36.5,45 36.5,42.1 43.4,42.1 43.4,29.7 41.9,29.7 41.9,40.5 
	14.3,40.5 14.3,42.1 34.9,42.1 34.9,46.6 48.5,46.6 48.5,4.1 "/>
<path d="M282.5,32.5h8.4l2.3-2.5v-5h-7.1v1.5h5.3v3l-1.4,1.4h-6.7l-1.4-1.4V21l1.4-1.4h7l1,1v1.3h1.8V20l-1.9-2h-8.7l-2.3,2.5V30
	L282.5,32.5z M257.8,32.5h6.6v-1.6h-2.8V20.1l8.8,12.4h2.2V19.5h2.1V18h-6.5v1.6h2.7v10.8L262.2,18h-4.4v1.6h2.2v11.4h-2.2
	L257.8,32.5L257.8,32.5z M246.8,32.5h6.6v-1.6H251V19.5h2.4V18h-6.6v1.6h2.4v11.4h-2.4V32.5z M229.3,32.5h13v-5.4h-1.5v3.8h-7.4
	V19.5h2.8V18h-6.8v1.6h2.2v11.4h-2.2V32.5z M214,32.5h7.4v-1.6h-2.8V19.5h4.6v3.3h1.6V18h-14.2v4.9h1.6v-3.3h4.7v11.4H214L214,32.5
	L214,32.5z M195.1,25.2v-5.7h7.7l1.1,1.2V24l-1.2,1.3L195.1,25.2L195.1,25.2z M191.1,32.5h6.9v-1.6h-2.9v-4.1h8.5l2.2-2.3v-4.4
	l-2.1-2.2h-12.6v1.6h2.2v11.4h-2.2V32.5z M174,32.5h8.1l2.3-2.5V19.5h2.2V18h-6.5v1.6h2.5v9.9l-1.4,1.4h-6.4l-1.4-1.4v-9.9h2.5V18
	h-6.5v1.6h2.2V30L174,32.5z M158.6,16.5h1.5v-2.1h-1.5V16.5z M154.7,16.5h1.5v-2.1h-1.5V16.5z M157.1,19.5h0.4l2.9,6.8h-6.2
	L157.1,19.5z M149,32.5h5.8V31h-2.5l1.4-3.3h7.4l1.4,3.3h-2.6v1.4h6V31h-1.6l-5-11.6h3V18h-9.6v1.5h2.9l-5,11.6H149L149,32.5
	L149,32.5z M127.8,32.5h6.4v-1.6h-2.4v-5h8.6v5h-2.4v1.6h6.4v-1.6h-2.2V19.5h2.2V18h-6.4v1.6h2.4v4.8h-8.6v-4.8h2.4V18h-6.4v1.6h2.2
	v11.4h-2.2C127.8,30.9,127.8,32.5,127.8,32.5z M105.5,24.7v-5.2h7.7l1.1,1.2v2.8l-1.1,1.2H105.5z M101.5,32.5h6.6v-1.6h-2.6v-4.7
	h7.6l1.3,1.3v3.7l1.2,1.2h2.3v-1.6h-1.4l-0.2-0.3v-3.5l-1.6-1.6l1.6-1.7v-3.7l-2.1-2.2h-12.6v1.6h2.2v11.4h-2.2L101.5,32.5
	L101.5,32.5z M82.6,32.5h13.9v-3.9h-1.6v2.3h-8.3V26h8v-1.5h-8v-4.9h8.3v2.4h1.6V18H82.6v1.6h2.2v11.4h-2.2V32.5z M66.3,30.9V19.5
	h7.5l1.4,1.4v8.5l-1.4,1.4L66.3,30.9L66.3,30.9z M62.3,32.5h12.3L77,30v-9.6L74.6,18H62.3v1.6h2.2v11.4h-2.2
	C62.3,30.9,62.3,32.5,62.3,32.5z"/>
</svg>
